…
#### Calculating total damage cost per event


```r
stormData <- stormData %>% mutate(totalDMG = PROPDMG + CROPDMG)
stormData
```

```
## # A tibble: 902,297 × 6
##    EVTYPE  PROPDMG CROPDMG INJURIES FATALITIES totalDMG
##    <chr>     <dbl>   <dbl>    <dbl>      <dbl>    <dbl>
##  1 TORNADO   25000       0       15          0    25000
##  2 TORNADO    2500       0        0          0     2500
##  3 TORNADO   25000       0        2          0    25000
##  4 TORNADO    2500       0        2          0     2500
##  5 TORNADO    2500       0        2          0     2500
##  6 TORNADO    2500       0        6          0     2500
##  7 TORNADO    2500       0        1          0     2500
##  8 TORNADO    2500       0        0          0     2500
##  9 TORNADO   25000       0       14          1    25000
## 10 TORNADO   25000       0        0          0    25000
## # … with 902,287 more rows
```
…
```r
fat_inj <- filter(stormData, !(FATALITIES == 0 & INJURIES == 0))
```

#### Calculating total fatalities and injuries per event 


```r
fat_inj <- fat_inj %>% mutate(totals = INJURIES + FATALITIES)
fat_inj
```

```
## # A tibble: 21,929 × 7
##    EVTYPE  PROPDMG CROPDMG INJURIES FATALITIES totalDMG totals
##    <chr>     <dbl>   <dbl>    <dbl>      <dbl>    <dbl>  <dbl>
##  1 TORNADO   25000       0       15          0    25000     15
##  2 TORNADO   25000       0        2          0    25000      2
##  3 TORNADO    2500       0        2          0     2500      2
##  4 TORNADO    2500       0        2          0     2500      2
##  5 TORNADO    2500       0        6          0     2500      6
##  6 TORNADO    2500       0        1          0     2500      1
##  7 TORNADO   25000       0       14          1    25000     15
##  8 TORNADO 2500000       0        3          0  2500000      3
##  9 TORNADO 2500000       0        3          0  2500000      3
## 10 TORNADO  250000       0       26          1   250000     27
## # … with 21,919 more rows
```
…
```r
# Aggregating 
tmp1 <- aggregate(INJURIES ~ EVTYPE, fat_inj, sum) # Sum of injuries caused by the same type of event
tmp2 <- aggregate(FATALITIES ~ EVTYPE, fat_inj, sum) # Sum of fatalities caused by the same type of event
tmp3 <- aggregate(totals ~ EVTYPE, fat_inj, sum) # # Sum of total injuries + fatalities caused by the same type of event

# Performing the join using the temporary tables to create the final dataframe
agg_data <- full_join(tmp1, tmp2, by = "EVTYPE")
agg_data <- full_join(agg_data, tmp3, by = "EVTYPE")
as_tibble(agg_data)
```

```
## # A tibble: 220 × 4
##    EVTYPE           INJURIES FATALITIES totals
##    <chr>               <dbl>      <dbl>  <dbl>
##  1 AVALANCE                0          1      1
##  2 AVALANCHE             170        224    394
##  3 BLACK ICE              24          1     25
##  4 BLIZZARD              805        101    906
##  5 blowing snow            1          1      2
##  6 BLOWING SNOW           13          1     14
##  7 BRUSH FIRE              2          0      2
##  8 COASTAL FLOOD           2          3      5
##  9 Coastal Flooding        0          2      2
## 10 COASTAL FLOODING        0          1      1
## # … with 210 more rows
```
…
Finally, I will make a reshape of the data by making a pivot and reorganizing the values into a new layout.


```r
agg_data <- pivot_longer(agg_data, cols = 2:4, names_to = "Condition", 
                     values_to = "Value")
agg_data
```

```
## # A tibble: 30 × 3
##    EVTYPE         Condition  Value
##    <chr>          <chr>      <dbl>
##  1 TORNADO        INJURIES   91346
##  2 TORNADO        FATALITIES  5633
##  3 TORNADO        totals     96979
##  4 EXCESSIVE HEAT INJURIES    6525
##  5 EXCESSIVE HEAT FATALITIES  1903
##  6 EXCESSIVE HEAT totals      8428
##  7 TSTM WIND      INJURIES    6957
##  8 TSTM WIND      FATALITIES   504
##  9 TSTM WIND      totals      7461
## 10 FLOOD          INJURIES    6789
## # … with 20 more rows
```
…
```r
economCons <- select(stormData, EVTYPE, PROPDMG, CROPDMG, totalDMG)

tmp1 <- aggregate(PROPDMG ~ EVTYPE, economCons, sum) # Sum of property damage caused by the same type of event
tmp2 <- aggregate(CROPDMG ~ EVTYPE, economCons, sum) # Sum of crop damage caused by the same type of event
tmp3 <- aggregate(totalDMG ~ EVTYPE, economCons, sum) # # Sum of total prop + crop caused by the same type of event

economCons <- full_join(tmp1, tmp2, by = "EVTYPE")
economCons <- full_join(economCons, tmp3, by = "EVTYPE")

as_tibble(economCons)
```

```
## # A tibble: 985 × 4
##    EVTYPE                  PROPDMG CROPDMG totalDMG
##    <chr>                     <dbl>   <dbl>    <dbl>
##  1 "   HIGH SURF ADVISORY"  200000       0   200000
##  2 " COASTAL FLOOD"              0       0        0
##  3 " FLASH FLOOD"            50000       0    50000
##  4 " LIGHTNING"                  0       0        0
##  5 " TSTM WIND"            8100000       0  8100000
##  6 " TSTM WIND (G45)"         8000       0     8000
##  7 " WATERSPOUT"                 0       0        0
##  8 " WIND"                       0       0        0
##  9 "?"                        5000       0     5000
## 10 "ABNORMAL WARMTH"             0       0        0
## # … with 975 more rows
```
…
Finally, I will make a reshape of the data by making a pivot and reorganizing the values into a new layout.


```r
economCons <- pivot_longer(economCons, cols = 2:4, names_to = "dmgType",
                           values_to = "costValue")
as_tibble(economCons)
```

```
## # A tibble: 30 × 3
##    EVTYPE            dmgType      costValue
##    <chr>             <chr>            <dbl>
##  1 FLOOD             PROPDMG  144657709800 
##  2 FLOOD             CROPDMG    5661968450 
##  3 FLOOD             totalDMG 150319678250 
##  4 HURRICANE/TYPHOON PROPDMG   69305840000 
##  5 HURRICANE/TYPHOON CROPDMG    2607872800 
##  6 HURRICANE/TYPHOON totalDMG  71913712800 
##  7 TORNADO           PROPDMG   56935880674.
##  8 TORNADO           CROPDMG     414953270 
##  9 TORNADO           totalDMG  57350833944.
## 10 STORM SURGE       PROPDMG   43323536000 
## # … with 20 more rows
```
…
